%YAML 1.1
%TAG !u! tag:unity3d.com,2011:
--- !u!21 &2100000
Material:
  serializedVersion: 8
  m_ObjectHideFlags: 0
  m_CorrespondingSourceObject: {fileID: 0}
  m_PrefabInstance: {fileID: 0}
  m_PrefabAsset: {fileID: 0}
  m_Name: Sky_Material
  m_Shader: {fileID: 4800000, guid: 1f071d8a924f85145a6c1f110a7a15ed, type: 3}
  m_Parent: {fileID: 0}
  m_ModifiedSerializedProperties: 0
  m_ValidKeywords: []
  m_InvalidKeywords: []
  m_LightmapFlags: 4
  m_EnableInstancingVariants: 0
  m_DoubleSidedGI: 0
  m_CustomRenderQueue: -1
  stringTagMap: {}
  disabledShaderPasses: []
  m_LockedProperties: 
  m_SavedProperties:
    serializedVersion: 3
    m_TexEnvs:
    - _MainTex:
        m_Texture: {fileID: 2800000, guid: fa3b6e568d6413d4bb5d8d76444428c5, type: 3}
        m_Scale: {x: 1.66, y: 1.4}
        m_Offset: {x: 0, y: 0}
    m_Ints: []
    m_Floats:
    - _Speed: 0.53
    m_Colors: []
  m_BuildTextureStacks: []
